Assignment 5
…
rt <- bind_rows(ord16,ord17,ord18,ord19,ord20)%>%
  mutate(year = year(date), month = month(date, label=TRUE), day = day(date), wday = wday(date, label=TRUE))%>%
  select(airport,terminal,date,year,month,day,wday,everything(),-(terminal))%>%
  rename(passengers=all_total,flights=all_flights,booths=all_booths)%>%
  arrange(date,hour)

rm(ord16,ord17,ord18,ord19,ord20)
print(rt)

## # A tibble: 29,450 x 24
##    airport date        year month   day wday  hour  us_avg_wait us_max_wait
##    <chr>   <date>     <dbl> <ord> <int> <ord> <chr>       <dbl>       <dbl>
##  1 ORD     2016-01-01  2016 Jan       1 Fri   0000           8          15
##  2 ORD     2016-01-01  2016 Jan       1 Fri   0400          28          40
##  3 ORD     2016-01-01  2016 Jan       1 Fri   0500          12          44
##  4 ORD     2016-01-01  2016 Jan       1 Fri   0700           4          25
##  5 ORD     2016-01-01  2016 Jan       1 Fri   0800           8          38
##  6 ORD     2016-01-01  2016 Jan       1 Fri   0900           5          14
##  7 ORD     2016-01-01  2016 Jan       1 Fri   1000          40          77
##  8 ORD     2016-01-01  2016 Jan       1 Fri   1100           3          15
##  9 ORD     2016-01-01  2016 Jan       1 Fri   1200           8          34
## 10 ORD     2016-01-01  2016 Jan       1 Fri   1300          13          52
## #  with 29,440 more rows, and 15 more variables: non_us_avg_wait <dbl>,
## #   non_us_max_wait <dbl>, all_avg_wait <dbl>, all_max_wait <dbl>,
## #   all_n_0..15 <dbl>, all_n_16..30 <dbl>, all_n_31..45 <dbl>,
## #   all_n_46..60 <dbl>, all_n_61..90 <dbl>, all_n_91..120 <dbl>,
## #   all_n_120.. <dbl>, all_excluded <dbl>, passengers <dbl>, flights <dbl>,
## #   booths <dbl>
…
